(define creature1-rotation
  '(((dcs4 dh1 dh1 dcs2 capstone dh2 mm1)
     (pc1 dh1 pc2 mm1 dcs2 capstone)
     (dh1))
    
    ((capstone mm2 dcs3 pc2 capstone mm1 dh1)
     (dcs2 dcs3 dcs2 mm1 capstone dh2)
     (pc1))
    
    ((mm1 capstone dcs4 dh1 dh2 pc2 dcs2)
     (dcs3 dcs2 capstone dcs4 pc2 pc2)
     (mm2))
    
    ((dcs3 pc2 dcs4 pc1 mm1 pc2 dcs2)
     (dh1 mm1 dcs3 dcs3 dcs2 dcs3)
     (mm1))))

(define perfect1
  (creature
   (list
    (gene
     (list
      (codon 0 0 0 1 1)
      (codon 0 0 1 1 1)
      (codon 0 1 0 1 0)
      (codon 0 1 1 0 1)
      (codon 0 1 1 1 0)
      (codon 0 1 0 1 0)
      (codon 0 1 1 1 0)
      (codon 0 0 1 0 1)
      (codon 0 1 1 1 1)
      (codon 0 1 0 1 0)
      (codon 0 0 0 0 1)
      (codon 0 0 0 0 0)
      (codon 0 1 0 0 1)
      (codon 0 0 1 0 0)))
    (gene
     (list
      (codon 0 0 1 0 1)
      (codon 0 0 1 1 1)
      (codon 0 1 0 1 0)
      (codon 0 1 1 0 0)
      (codon 0 1 0 0 0)
      (codon 0 1 0 0 1)
      (codon 0 1 1 0 0)
      (codon 0 0 1 1 1)
      (codon 0 1 0 1 0)
      (codon 0 0 1 1 0)
      (codon 0 1 0 0 1)
      (codon 0 1 1 0 1)
      (codon 0 0 0 0 1)
      (codon 0 0 1 1 1)))
    (gene
     (list
      (codon 0 0 1 0 0)
      (codon 0 1 1 0 1)
      (codon 0 1 1 1 0)
      (codon 0 1 0 0 0)
      (codon 0 1 0 1 0)
      (codon 0 1 1 0 1)
      (codon 0 1 0 1 0)
      (codon 0 0 1 1 1)
      (codon 0 1 1 0 0)
      (codon 0 1 1 0 1)
      (codon 0 0 1 1 1)
      (codon 0 1 0 1 0)
      (codon 0 0 1 1 1)
      (codon 0 1 0 1 0)))
    (gene
     (list
      (codon 0 1 0 1 1)
      (codon 0 0 0 0 0)
      (codon 0 1 0 1 1)
      (codon 0 1 0 0 0)
      (codon 0 1 0 0 1)
      (codon 0 1 0 1 0)
      (codon 0 0 1 1 1)
      (codon 0 1 0 0 0)
      (codon 0 1 0 0 0)
      (codon 0 1 0 0 1)
      (codon 0 0 0 1 1)
      (codon 0 1 0 0 0)
      (codon 0 1 1 1 1)
      (codon 0 0 0 0 1))))))

(define perfect2
  (creature
   (list
    (gene
     (list
      (codon 0 0 1 0 0)
      (codon 0 0 1 0 0)
      (codon 0 1 1 0 0)
      (codon 0 1 0 0 0)
      (codon 0 0 1 1 0)
      (codon 0 1 0 0 1)
      (codon 0 0 0 1 0)
      (codon 0 1 1 0 0)
      (codon 0 0 1 1 0)
      (codon 0 0 1 1 1)
      (codon 0 0 0 0 1)
      (codon 0 0 0 0 0)
      (codon 0 1 0 1 1)
      (codon 0 0 1 0 0)))
    (gene
     (list
      (codon 0 0 1 1 1)
      (codon 0 0 0 1 0)
      (codon 0 0 1 1 0)
      (codon 0 1 0 0 1)
      (codon 0 0 1 1 1)
      (codon 0 0 1 1 1)
      (codon 0 1 0 0 1)
      (codon 0 0 0 0 1)
      (codon 0 0 1 1 1)
      (codon 0 0 0 1 1)
      (codon 0 1 0 1 0)
      (codon 0 0 0 0 1)
      (codon 0 1 0 0 0)
      (codon 0 0 1 1 1)))
    (gene
     (list
      (codon 0 0 1 0 1)
      (codon 0 1 0 0 0)
      (codon 0 1 0 0 1)
      (codon 0 1 0 1 1)
      (codon 0 0 0 1 1)
      (codon 0 0 0 0 1)
      (codon 0 1 0 1 0)
      (codon 0 1 0 0 0)
      (codon 0 0 1 0 0)
      (codon 0 1 1 0 1)
      (codon 0 1 0 0 0)
      (codon 0 1 1 1 0)
      (codon 0 1 0 1 0)
      (codon 0 0 1 1 1)))
    (gene
     (list
      (codon 0 0 0 1 0)
      (codon 0 0 0 0 0)
      (codon 0 0 1 0 1)
      (codon 0 1 1 0 0)
      (codon 0 1 0 0 1)
      (codon 0 0 0 0 0)
      (codon 0 1 0 1 0)
      (codon 0 1 0 0 1)
      (codon 0 1 1 1 0)
      (codon 0 0 0 0 0)
      (codon 0 0 0 0 1)
      (codon 0 1 0 1 0)
      (codon 0 0 0 0 0)
      (codon 0 1 0 0 1))))))

(define perfect3
  (creature
   (list
    (gene
     (list
      (codon 0 0 1 0 0)
      (codon 0 0 1 0 0)
      (codon 0 1 1 0 0)
      (codon 0 1 0 0 0)
      (codon 0 0 1 1 0)
      (codon 0 1 0 0 0)
      (codon 0 0 0 1 0)
      (codon 0 0 1 0 1)
      (codon 0 0 0 0 0)
      (codon 0 0 0 0 0)
      (codon 0 0 0 0 1)
      (codon 0 1 1 1 0)
      (codon 0 1 0 0 1)
      (codon 0 1 0 0 0)))
    (gene
     (list
      (codon 0 0 1 1 1)
      (codon 0 0 0 1 0)
      (codon 0 1 1 0 0)
      (codon 0 1 0 0 1)
      (codon 0 0 1 1 1)
      (codon 0 0 1 1 1)
      (codon 0 1 0 0 1)
      (codon 0 0 1 1 1)
      (codon 0 1 0 1 0)
      (codon 0 1 0 1 0)
      (codon 0 1 0 1 0)
      (codon 0 1 1 0 1)
      (codon 0 0 0 0 1)
      (codon 0 0 1 1 1)))
    (gene
     (list
      (codon 0 1 1 1 1)
      (codon 0 1 0 1 1)
      (codon 0 1 0 0 1)
      (codon 0 1 0 1 1)
      (codon 0 1 0 1 0)
      (codon 0 0 0 0 1)
      (codon 0 0 1 1 0)
      (codon 0 0 1 1 1)
      (codon 0 1 1 0 0)
      (codon 0 0 0 1 0)
      (codon 0 0 1 1 1)
      (codon 0 0 1 1 0)
      (codon 0 0 1 1 1)
      (codon 0 0 1 0 0)))
    (gene
     (list
      (codon 0 0 0 1 0)
      (codon 0 0 0 0 0)
      (codon 0 1 0 1 0)
      (codon 0 1 0 0 0)
      (codon 0 1 0 0 1)
      (codon 0 0 0 0 0)
      (codon 0 0 0 0 1)
      (codon 0 1 0 0 0)
      (codon 0 1 1 1 1)
      (codon 0 1 0 0 1)
      (codon 0 0 0 1 1)
      (codon 0 0 0 0 1)
      (codon 0 1 1 1 1)
      (codon 0 0 0 0 1))))))